Delta Cq 96-well plate qPCR analysis example • tidyqpcr
…
# NOTE: system.file() accesses data from this R package
# To use your own data, remove the call to system.file(),
# instead pass your data's filename to read_tsv()
# or to another relevant read_ function

file_path_cq <- system.file("extdata",
                            "Stuart_dAgr_glyS_spoVG_5S_individualWells_Cq_select.txt.gz",
                            package = "tidyqpcr")

plate_cq_extdata <- file_path_cq %>%
  read_tsv()

plate_cq_extdata

## # A tibble: 90 × 3
##    well  sample_info      cq
##    <chr> <chr>         <dbl>
##  1 A1    WT OD0.5 glyS  14.0
##  2 A2    WT OD0.5 glyS  13.9
##  3 A3    WT OD0.5 glyS  14.0
##  4 A4    WT OD1.5 glyS  14.6
##  5 A5    WT OD1.5 glyS  16.1
##  6 A6    WT OD1.5 glyS  14.4
##  7 A7    WT OD3 glyS    15.6
##  8 A8    WT OD3 glyS    15.6
##  9 A9    WT OD3 glyS    15.5
## 10 A10   WT OD6 glyS    12.8
## # ℹ 80 more rows
…
plate_cq_data <- 
  create_blank_plate_96well() %>% # row and column labels for each well
  inner_join(plate_cq_extdata, by = "well") %>% # join that info to loaded data
  # next separate the sample and target information for future data analysis
  separate(sample_info,
           into = c("strain","OD","target_id"), 
           sep = " ",
           remove = FALSE) %>%
  unite("sample_id",strain, OD, remove = FALSE) %>% # put sample_id together
  mutate(prep_type = "+RT") # add information on cDNA prep type

plate_cq_data

## # A tibble: 90 × 10
##    well  well_row well_col sample_info   sample_id strain OD    target_id    cq
##    <chr> <fct>    <fct>    <chr>         <chr>     <chr>  <chr> <chr>     <dbl>
##  1 A1    A        1        WT OD0.5 glyS WT_OD0.5  WT     OD0.5 glyS       14.0
##  2 A2    A        2        WT OD0.5 glyS WT_OD0.5  WT     OD0.5 glyS       13.9
##  3 A3    A        3        WT OD0.5 glyS WT_OD0.5  WT     OD0.5 glyS       14.0
##  4 A4    A        4        WT OD1.5 glyS WT_OD1.5  WT     OD1.5 glyS       14.6
##  5 A5    A        5        WT OD1.5 glyS WT_OD1.5  WT     OD1.5 glyS       16.1
##  6 A6    A        6        WT OD1.5 glyS WT_OD1.5  WT     OD1.5 glyS       14.4
##  7 A7    A        7        WT OD3 glyS   WT_OD3    WT     OD3   glyS       15.6
##  8 A8    A        8        WT OD3 glyS   WT_OD3    WT     OD3   glyS       15.6
##  9 A9    A        9        WT OD3 glyS   WT_OD3    WT     OD3   glyS       15.5
## 10 A10   A        10       WT OD6 glyS   WT_OD6    WT     OD6   glyS       12.8
## # ℹ 80 more rows
## # ℹ 1 more variable: prep_type <chr>
…
Then the function will subtract that value from the Cq for every other measured gene, again separately for each sample, adding a delta_cq column to its output data

The function also calculates relative abundance or normalized ratio to the reference targets, , adding a rel_abund column to its output data.

If you use multiple reference target ids, the function will take the median across Cq values of all the reference target ids. You can also ask the function to use a different summary, e.g. mean instead of median. See the help file ?calculate_deltacq_bysampleid for more details.

As ever, we print the data to screen as a sanity check.

plate_norm <- plate_cq_data %>%
  calculate_deltacq_bysampleid(ref_target_ids = "5S")

plate_norm

## # A tibble: 90 × 13
##    well  well_row well_col sample_info    sample_id strain OD    target_id    cq
##    <chr> <fct>    <fct>    <chr>          <chr>     <chr>  <chr> <chr>     <dbl>
##  1 A1    A        1        WT OD0.5 glyS  WT_OD0.5  WT     OD0.5 glyS      14.0 
##  2 A2    A        2        WT OD0.5 glyS  WT_OD0.5  WT     OD0.5 glyS      13.9 
##  3 A3    A        3        WT OD0.5 glyS  WT_OD0.5  WT     OD0.5 glyS      14.0 
##  4 B4    B        4        WT OD0.5 spoVG WT_OD0.5  WT     OD0.5 spoVG     13.6 
##  5 B5    B        5        WT OD0.5 spoVG WT_OD0.5  WT     OD0.5 spoVG     13.6 
##  6 B6    B        6        WT OD0.5 spoVG WT_OD0.5  WT     OD0.5 spoVG     13.6 
##  7 C7    C        7        WT OD0.5 5S    WT_OD0.5  WT     OD0.5 5S         4.91
##  8 C8    C        8        WT OD0.5 5S    WT_OD0.5  WT     OD0.5 5S         4.96
##  9 C9    C        9        WT OD0.5 5S    WT_OD0.5  WT     OD0.5 5S         5.01
## 10 A4    A        4        WT OD1.5 glyS  WT_OD1.5  WT     OD1.5 glyS      14.6 
## # ℹ 80 more rows
## # ℹ 4 more variables: prep_type <chr>, ref_cq <dbl>, delta_cq <dbl>,
## #   rel_abund <dbl>
…
Calculate a summary value for each sample-target combination

Having made normalized values, we use group_by and summarize from the dplyr package to calculate the median values of delta_cq and rel_abund for each sample. This makes a smaller table by collapsing 3 technical replicates into a single summary value for each sample_id-target_id combination.

plate_med <- plate_norm %>%
  group_by(sample_id, strain, OD, target_id) %>%
  summarize(
    delta_cq  = median(delta_cq, na.rm = TRUE),
    rel_abund = median(rel_abund, na.rm = TRUE)
  )

plate_med

## # A tibble: 30 × 6
## # Groups:   sample_id, strain, OD [10]
##    sample_id strain OD    target_id delta_cq rel_abund
##    <chr>     <chr>  <chr> <chr>        <dbl>     <dbl>
##  1 WT_OD0.5  WT     OD0.5 5S            0     1       
##  2 WT_OD0.5  WT     OD0.5 glyS          8.99  0.00197 
##  3 WT_OD0.5  WT     OD0.5 spoVG         8.63  0.00252 
##  4 WT_OD1.5  WT     OD1.5 5S            0     1       
##  5 WT_OD1.5  WT     OD1.5 glyS          9.71  0.00119 
##  6 WT_OD1.5  WT     OD1.5 spoVG         7.98  0.00396 
##  7 WT_OD3    WT     OD3   5S            0     1       
##  8 WT_OD3    WT     OD3   glyS         10.7   0.000585
##  9 WT_OD3    WT     OD3   spoVG         8.86  0.00215 
## 10 WT_OD6    WT     OD6   5S            0     1       
## # ℹ 20 more rows
…
If you use multiple reference sample ids, the function will take the median across Cq values of all the reference target ids. For example, you might use multiple biological replicate samples of a single set of conditions. You can also ask the function to use a different summary, e.g. mean instead of median. See the help file ?calculate_deltadeltacq_bytargetid for more details.

plate_deltanorm <- plate_norm %>%
  calculate_deltadeltacq_bytargetid(ref_sample_ids = "WT_OD0.5")

plate_deltanorm_med <- plate_deltanorm %>%
    group_by(sample_id, strain, OD, target_id) %>%
  summarize(
    deltadelta_cq  = median(deltadelta_cq, na.rm = TRUE),
    fold_change    = median(fold_change,   na.rm = TRUE)
  )

plate_deltanorm

## # A tibble: 90 × 16
##    well  well_row well_col sample_info sample_id strain OD    target_id    cq
##    <chr> <fct>    <fct>    <chr>       <chr>     <chr>  <chr> <chr>     <dbl>
##  1 C7    C        7        WT OD0.5 5S WT_OD0.5  WT     OD0.5 5S         4.91
##  2 C8    C        8        WT OD0.5 5S WT_OD0.5  WT     OD0.5 5S         4.96
##  3 C9    C        9        WT OD0.5 5S WT_OD0.5  WT     OD0.5 5S         5.01
##  4 C10   C        10       WT OD1.5 5S WT_OD1.5  WT     OD1.5 5S         4.84
##  5 C11   C        11       WT OD1.5 5S WT_OD1.5  WT     OD1.5 5S         4.78
##  6 C12   C        12       WT OD1.5 5S WT_OD1.5  WT     OD1.5 5S         4.99
##  7 D1    D        1        WT OD3 5S   WT_OD3    WT     OD3   5S         4.93
##  8 D2    D        2        WT OD3 5S   WT_OD3    WT     OD3   5S         4.81
##  9 D3    D        3        WT OD3 5S   WT_OD3    WT     OD3   5S         4.75
## 10 D4    D        4        WT OD6 5S   WT_OD6    WT     OD6   5S         4.8 
## # ℹ 80 more rows
## # ℹ 7 more variables: prep_type <chr>, ref_cq <dbl>, delta_cq <dbl>,
## #   rel_abund <dbl>, ref_delta_cq <dbl>, deltadelta_cq <dbl>, fold_change <dbl>

plate_deltanorm_med

## # A tibble: 30 × 6
## # Groups:   sample_id, strain, OD [10]
##    sample_id strain OD    target_id deltadelta_cq fold_change
##    <chr>     <chr>  <chr> <chr>             <dbl>       <dbl>
##  1 WT_OD0.5  WT     OD0.5 5S                0           1    
##  2 WT_OD0.5  WT     OD0.5 glyS              0           1    
##  3 WT_OD0.5  WT     OD0.5 spoVG             0           1    
##  4 WT_OD1.5  WT     OD1.5 5S                0           1    
##  5 WT_OD1.5  WT     OD1.5 glyS             -0.720       0.607
##  6 WT_OD1.5  WT     OD1.5 spoVG             0.650       1.57 
##  7 WT_OD3    WT     OD3   5S                0           1    
##  8 WT_OD3    WT     OD3   glyS             -1.75        0.297
##  9 WT_OD3    WT     OD3   spoVG            -0.230       0.853
## 10 WT_OD6    WT     OD6   5S                0           1    
## # ℹ 20 more rows
…
